0.00  0.97
0.00  1.14
0.00  1.57
0.00  2.14
0.00  2.83
0.00  4.07
0.00  5.47
0.00  6.53
0.00  7.99
0.00  9.30
0.22 10.50
1.01 11.81
1.57 13.00
2.14 14.05
2.83 15.50
3.48 16.52
4.07 17.99
5.04 19.02
5.47 20.16
6.51 21.51
7.55 22.52
0.00  0.95 
0.00  1.10 
0.00  1.38 
0.00  1.75 
0.00  2.56 
0.00  3.28 
0.00  4.54 
0.00  5.53 
0.00  6.99 
0.00  8.30 
0.00  9.50 
0.02 10.81 
0.83 12.00 
1.50 13.05 
2.13 14.50 
2.56 15.52 
3.28 16.99 
4.11 18.02 
4.54 19.16 
5.51 20.51 
6.55 21.52
0.00  0.94 
0.00  1.07 
0.00  1.27 
0.00  1.49 
0.00  1.98 
0.00  2.60 
0.00  3.73 
0.00  4.58 
0.00  5.99 
0.00  7.30 
0.00  8.50 
0.00  9.81 
0.00 11.00 
0.65 12.05 
1.39 13.50 
1.98 14.52 
2.60 15.99 
3.32 17.02 
3.73 18.16 
4.58 19.51 
5.55 20.52
0.00  0.94 
0.00  1.05 
0.00  1.21 
0.00  1.37 
0.00  1.82 
0.00  2.38 
0.00  3.02 
0.00  3.77 
0.00  5.05 
0.00  6.30 
0.00  7.50 
0.00  8.81 
0.00 10.00 
0.00 11.05 
0.47 12.50 
1.26 13.52 
1.82 14.99 
2.38 16.02 
3.02 17.16 
3.77 18.51 
4.55 19.52
0.00  0.93 
0.00  1.03 
0.00  1.15 
0.00  1.29 
0.00  1.57 
0.00  1.85 
0.00  2.40 
0.00  3.26 
0.00  4.22 
0.00  5.30 
0.00  6.50 
0.00  7.81 
0.00  9.00 
0.00 10.05 
0.00 11.50 
0.30 12.52 
1.13 13.99 
1.81 15.02 
2.40 16.16 
3.05 17.51 
3.55 18.52
0.00  0.93 
0.00  1.01 
0.00  1.11 
0.00  1.24 
0.00  1.45 
0.00  1.70 
0.00  2.21 
0.00  2.81 
0.00  3.49 
0.00  4.30 
0.00  5.56 
0.00  6.81 
0.00  8.00 
0.00  9.05 
0.00 10.50 
0.00 11.52 
0.14 12.99 
0.98 14.02 
1.70 15.16 
2.21 16.51 
2.81 17.52
0.00  0.92 
0.00  1.00 
0.00  1.09 
0.00  1.21 
0.00  1.37 
0.00  1.58 
0.00  1.86 
0.00  2.23 
0.00  2.83 
0.00  3.93 
0.00  4.71 
0.00  5.81 
0.00  7.00 
0.00  8.05 
0.00  9.50 
0.00 10.52 
0.00 11.99 
0.00 13.02 
0.82 14.16 
1.58 15.51 
2.23 16.52
0.00  0.92 
0.00  0.99 
0.00  1.08 
0.00  1.18 
0.00  1.31 
0.00  1.48 
0.00  1.67 
0.00  2.07 
0.00  2.62 
0.00  3.25 
0.00  3.95 
0.00  4.81 
0.00  6.05 
0.00  7.05 
0.00  8.50 
0.00  9.52 
0.00 10.99 
0.00 12.02 
0.00 13.16 
0.67 14.51 
1.48 15.52
0.00  0.92 
0.00  0.99 
0.00  1.06 
0.00  1.15 
0.00  1.27 
0.00  1.39 
0.00  1.55 
0.00  1.86 
0.00  2.11 
0.00  2.64 
0.00  3.27 
0.00  4.39 
0.00  5.19 
0.00  6.08 
0.00  7.50 
0.00  8.52 
0.00  9.99 
0.00 11.02 
0.00 12.16 
0.00 13.51 
0.53 14.52
0.00  0.92 
0.00  0.98 
0.00  1.05 
0.00  1.14 
0.00  1.24 
0.00  1.32 
0.00  1.47 
0.00  1.69 
0.00  1.95 
0.00  2.45 
0.00  3.00 
0.00  3.69 
0.00  4.42 
0.00  5.22 
0.00  6.55 
0.00  7.52 
0.00  8.99 
0.00 10.02 
0.00 11.16 
0.00 12.51 
0.00 13.52